{"header" : {
  "cloc_url"           : "github.com/AlDanial/cloc",
  "cloc_version"       : "1.74",
  "elapsed_seconds"    : 0.297981977462769,
  "n_files"            : 8,
  "n_lines"            : 632,
  "files_per_second"   : 26.8472612609585,
  "lines_per_second"   : 2120.93363961572},
 "added" : {
  "Python" : {
    "comment" : "5",
    "blank" : "28",
    "code" : "215",
    "nFiles" : "2"
  },
  "YAML" : {
    "nFiles" : "1",
    "blank" : "0",
    "code" : "5",
    "comment" : "0"
  }
  },
 "same" : {
  "Python" : {
    "comment" : "6",
    "blank" : "0",
    "code" : "127",
    "nFiles" : "0"
  },
  "YAML" : {
    "nFiles" : "0",
    "blank" : "0",
    "code" : "103",
    "comment" : "0"
  }
  },
 "modified" : {
  "Python" : {
    "comment" : "0",
    "blank" : "0",
    "code" : "39",
    "nFiles" : "4"
  },
  "YAML" : {
    "nFiles" : "1",
    "blank" : "0",
    "code" : "16",
    "comment" : "0"
  }
  },
 "removed" : {
  "Python" : {
    "comment" : "3",
    "blank" : "17",
    "code" : "56",
    "nFiles" : "0"
  },
  "YAML" : {
    "nFiles" : "0",
    "blank" : "0",
    "code" : "12",
    "comment" : "0"
  }
  }
}